Request method:	GET
Request URI:	https://reqres.in/api/users?page=2
Proxy:			<none>
Request params:	<none>
Query params:	page=2
Form params:	<none>
Path params:	<none>
Headers:		Accept=*/*
Cookies:		<none>
Multiparts:		<none>
Body:			<none>
HTTP/1.1 200 OK
Date: Tue, 08 Sep 2020 04:30:07 GMT
Content-Type: application/json; charset=utf-8
Transfer-Encoding: chunked
Connection: keep-alive
Set-Cookie: __cfduid=d6ce6776f7236c226cf82d6a1e7eefcdd1599539407; expires=Thu, 08-Oct-20 04:30:07 GMT; path=/; domain=.reqres.in; HttpOnly; SameSite=Lax; Secure
X-Powered-By: Express
Access-Control-Allow-Origin: *
Etag: W/"4dd-IPv5LdOOb6s5S9E3i59wBCJ1k/0"
Via: 1.1 vegur
Cache-Control: max-age=14400
CF-Cache-Status: HIT
Age: 2967
cf-request-id: 050d93822a00001a4ab9a57200000001
Expect-CT: max-age=604800, report-uri="https://report-uri.cloudflare.com/cdn-cgi/beacon/expect-ct"
Vary: Accept-Encoding
Server: cloudflare
CF-RAY: 5cf5eeb04cab1a4a-SIN
Content-Encoding: gzip

{
    "page": 2,
    "per_page": 6,
    "total": 12,
    "total_pages": 2,
    "data": [
        {
            "id": 7,
            "email": "michael.lawson@reqres.in",
            "first_name": "Michael",
            "last_name": "Lawson",
            "avatar": "https://s3.amazonaws.com/uifaces/faces/twitter/follettkyle/128.jpg"
        },
        {
            "id": 8,
            "email": "lindsay.ferguson@reqres.in",
            "first_name": "Lindsay",
            "last_name": "Ferguson",
            "avatar": "https://s3.amazonaws.com/uifaces/faces/twitter/araa3185/128.jpg"
        },
        {
            "id": 9,
            "email": "tobias.funke@reqres.in",
            "first_name": "Tobias",
            "last_name": "Funke",
            "avatar": "https://s3.amazonaws.com/uifaces/faces/twitter/vivekprvr/128.jpg"
        },
        {
            "id": 10,
            "email": "byron.fields@reqres.in",
            "first_name": "Byron",
            "last_name": "Fields",
            "avatar": "https://s3.amazonaws.com/uifaces/faces/twitter/russoedu/128.jpg"
        },
        {
            "id": 11,
            "email": "george.edwards@reqres.in",
            "first_name": "George",
            "last_name": "Edwards",
            "avatar": "https://s3.amazonaws.com/uifaces/faces/twitter/mrmoiree/128.jpg"
        },
        {
            "id": 12,
            "email": "rachel.howell@reqres.in",
            "first_name": "Rachel",
            "last_name": "Howell",
            "avatar": "https://s3.amazonaws.com/uifaces/faces/twitter/hebertialmeida/128.jpg"
        }
    ],
    "ad": {
        "company": "StatusCode Weekly",
        "url": "http://statuscode.org/",
        "text": "A weekly newsletter focusing on software development, infrastructure, the server, performance, and the stack end of things."
    }
}
Request method:	GET
Request URI:	https://reqres.in/api/users/2
Proxy:			<none>
Request params:	<none>
Query params:	<none>
Form params:	<none>
Path params:	<none>
Headers:		Accept=*/*
Cookies:		<none>
Multiparts:		<none>
Body:			<none>
HTTP/1.1 200 OK
Date: Tue, 08 Sep 2020 04:30:09 GMT
Content-Type: application/json; charset=utf-8
Transfer-Encoding: chunked
Connection: keep-alive
Set-Cookie: __cfduid=d7075f97243d1191b4e3127692b488bf71599539409; expires=Thu, 08-Oct-20 04:30:09 GMT; path=/; domain=.reqres.in; HttpOnly; SameSite=Lax; Secure
X-Powered-By: Express
Access-Control-Allow-Origin: *
Etag: W/"173-1Z8bn0V7UjH6FK7NCaza1ccWXQk"
Via: 1.1 vegur
Cache-Control: max-age=14400
CF-Cache-Status: HIT
Age: 7159
cf-request-id: 050d938b9d0000c36d808f8200000001
Expect-CT: max-age=604800, report-uri="https://report-uri.cloudflare.com/cdn-cgi/beacon/expect-ct"
Vary: Accept-Encoding
Server: cloudflare
CF-RAY: 5cf5eebf691dc36d-SIN
Content-Encoding: gzip

{
    "data": {
        "id": 2,
        "email": "janet.weaver@reqres.in",
        "first_name": "Janet",
        "last_name": "Weaver",
        "avatar": "https://s3.amazonaws.com/uifaces/faces/twitter/josephstein/128.jpg"
    },
    "ad": {
        "company": "StatusCode Weekly",
        "url": "http://statuscode.org/",
        "text": "A weekly newsletter focusing on software development, infrastructure, the server, performance, and the stack end of things."
    }
}
Request method:	GET
Request URI:	https://reqres.in/api/users/23
Proxy:			<none>
Request params:	<none>
Query params:	<none>
Form params:	<none>
Path params:	<none>
Headers:		Accept=*/*
Cookies:		<none>
Multiparts:		<none>
Body:			<none>
HTTP/1.1 404 Not Found
Date: Tue, 08 Sep 2020 04:30:10 GMT
Content-Type: application/json; charset=utf-8
Content-Length: 2
Connection: keep-alive
Set-Cookie: __cfduid=d898847f0cead4b8c3ddce7c678f2bfd11599539410; expires=Thu, 08-Oct-20 04:30:10 GMT; path=/; domain=.reqres.in; HttpOnly; SameSite=Lax; Secure
X-Powered-By: Express
Access-Control-Allow-Origin: *
Etag: W/"2-vyGp6PvFo4RvsFtPoIWeCReyIC8"
Via: 1.1 vegur
Cache-Control: max-age=14400
CF-Cache-Status: EXPIRED
cf-request-id: 050d938d3c0000c36d80915200000001
Expect-CT: max-age=604800, report-uri="https://report-uri.cloudflare.com/cdn-cgi/beacon/expect-ct"
Vary: Accept-Encoding
Server: cloudflare
CF-RAY: 5cf5eec1ff60c36d-SIN

{
    
}
Request method:	GET
Request URI:	https://reqres.in/api/unknown
Proxy:			<none>
Request params:	<none>
Query params:	<none>
Form params:	<none>
Path params:	<none>
Headers:		Accept=*/*
Cookies:		<none>
Multiparts:		<none>
Body:			<none>
HTTP/1.1 200 OK
Date: Tue, 08 Sep 2020 04:30:10 GMT
Content-Type: application/json; charset=utf-8
Transfer-Encoding: chunked
Connection: keep-alive
Set-Cookie: __cfduid=d898847f0cead4b8c3ddce7c678f2bfd11599539410; expires=Thu, 08-Oct-20 04:30:10 GMT; path=/; domain=.reqres.in; HttpOnly; SameSite=Lax; Secure
x-powered-by: Express
access-control-allow-origin: *
etag: W/"301-ijGNEim/mAI7LpbQIXyQc2bjt+k"
via: 1.1 vegur
cf-int-pingora-origin-digest: {"ext_ip":"162.158.166.109","ext_port":30566,"upstream_rtt":190}
Cache-Control: max-age=14400
CF-Cache-Status: HIT
Age: 243
cf-request-id: 050d938ff80000c36d8093f200000001
Expect-CT: max-age=604800, report-uri="https://report-uri.cloudflare.com/cdn-cgi/beacon/expect-ct"
Vary: Accept-Encoding
Server: cloudflare
CF-RAY: 5cf5eec65940c36d-SIN
Content-Encoding: gzip

{
    "page": 1,
    "per_page": 6,
    "total": 12,
    "total_pages": 2,
    "data": [
        {
            "id": 1,
            "name": "cerulean",
            "year": 2000,
            "color": "#98B2D1",
            "pantone_value": "15-4020"
        },
        {
            "id": 2,
            "name": "fuchsia rose",
            "year": 2001,
            "color": "#C74375",
            "pantone_value": "17-2031"
        },
        {
            "id": 3,
            "name": "true red",
            "year": 2002,
            "color": "#BF1932",
            "pantone_value": "19-1664"
        },
        {
            "id": 4,
            "name": "aqua sky",
            "year": 2003,
            "color": "#7BC4C4",
            "pantone_value": "14-4811"
        },
        {
            "id": 5,
            "name": "tigerlily",
            "year": 2004,
            "color": "#E2583E",
            "pantone_value": "17-1456"
        },
        {
            "id": 6,
            "name": "blue turquoise",
            "year": 2005,
            "color": "#53B0AE",
            "pantone_value": "15-5217"
        }
    ],
    "ad": {
        "company": "StatusCode Weekly",
        "url": "http://statuscode.org/",
        "text": "A weekly newsletter focusing on software development, infrastructure, the server, performance, and the stack end of things."
    }
}
Request method:	GET
Request URI:	https://reqres.in/api/unknown/2
Proxy:			<none>
Request params:	<none>
Query params:	<none>
Form params:	<none>
Path params:	<none>
Headers:		Accept=*/*
Cookies:		<none>
Multiparts:		<none>
Body:			<none>
HTTP/1.1 200 OK
Date: Tue, 08 Sep 2020 04:30:12 GMT
Content-Type: application/json; charset=utf-8
Transfer-Encoding: chunked
Connection: keep-alive
Set-Cookie: __cfduid=df4d9eca8cbacc7565eb958492a756e7f1599539412; expires=Thu, 08-Oct-20 04:30:12 GMT; path=/; domain=.reqres.in; HttpOnly; SameSite=Lax; Secure
X-Powered-By: Express
Access-Control-Allow-Origin: *
Etag: W/"128-2OIdTk88Wl5IU+miBPIdhOPMcBo"
Via: 1.1 vegur
Cache-Control: max-age=14400
CF-Cache-Status: HIT
Age: 243
cf-request-id: 050d9394da0000c36d809a2200000001
Expect-CT: max-age=604800, report-uri="https://report-uri.cloudflare.com/cdn-cgi/beacon/expect-ct"
Vary: Accept-Encoding
Server: cloudflare
CF-RAY: 5cf5eece2aadc36d-SIN
Content-Encoding: gzip

{
    "data": {
        "id": 2,
        "name": "fuchsia rose",
        "year": 2001,
        "color": "#C74375",
        "pantone_value": "17-2031"
    },
    "ad": {
        "company": "StatusCode Weekly",
        "url": "http://statuscode.org/",
        "text": "A weekly newsletter focusing on software development, infrastructure, the server, performance, and the stack end of things."
    }
}
Request method:	POST
Request URI:	https://reqres.in/api/users
Proxy:			<none>
Request params:	<none>
Query params:	<none>
Form params:	<none>
Path params:	<none>
Headers:		Accept=*/*
				Content-Type=application/json; charset=UTF-8
Cookies:		<none>
Multiparts:		<none>
Body:
{
    "name": "Wilfred",
    "job": "QA"
}
HTTP/1.1 201 Created
Date: Tue, 08 Sep 2020 04:30:13 GMT
Content-Type: application/json; charset=utf-8
Content-Length: 77
Connection: keep-alive
Set-Cookie: __cfduid=d3188ce0eaa8367d7808fe7bb2bc3323a1599539413; expires=Thu, 08-Oct-20 04:30:13 GMT; path=/; domain=.reqres.in; HttpOnly; SameSite=Lax; Secure
X-Powered-By: Express
Access-Control-Allow-Origin: *
Etag: W/"4d-xciMaPyYAV3/5rmhb0zAlltrKSQ"
Via: 1.1 vegur
CF-Cache-Status: DYNAMIC
cf-request-id: 050d9399ae0000c36d80a0a200000001
Expect-CT: max-age=604800, report-uri="https://report-uri.cloudflare.com/cdn-cgi/beacon/expect-ct"
Server: cloudflare
CF-RAY: 5cf5eed5eb2ec36d-SIN

{
    "name": "Wilfred",
    "job": "QA",
    "id": "9",
    "createdAt": "2020-09-08T04:30:13.731Z"
}
Request method:	POST
Request URI:	https://reqres.in/api/users
Proxy:			<none>
Request params:	<none>
Query params:	<none>
Form params:	<none>
Path params:	<none>
Headers:		Accept=*/*
				Content-Type=application/json; charset=UTF-8
Cookies:		<none>
Multiparts:		<none>
Body:
{
    "name": "Joseph",
    "job": "Lead"
}
HTTP/1.1 201 Created
Date: Tue, 08 Sep 2020 04:30:14 GMT
Content-Type: application/json; charset=utf-8
Content-Length: 80
Connection: keep-alive
Set-Cookie: __cfduid=d77a92a5f2798716ca08e213bf1f7a9c51599539414; expires=Thu, 08-Oct-20 04:30:14 GMT; path=/; domain=.reqres.in; HttpOnly; SameSite=Lax; Secure
x-powered-by: Express
access-control-allow-origin: *
etag: W/"50-jWc7ouhBVQwggmG978v31cfxXBo"
via: 1.1 vegur
CF-Cache-Status: DYNAMIC
cf-request-id: 050d939c6e0000c36d80a41200000001
Expect-CT: max-age=604800, report-uri="https://report-uri.cloudflare.com/cdn-cgi/beacon/expect-ct"
Server: cloudflare
CF-RAY: 5cf5eeda4cd4c36d-SIN

{
    "name": "Joseph",
    "job": "Lead",
    "id": "474",
    "createdAt": "2020-09-08T04:30:14.407Z"
}
Request method:	POST
Request URI:	https://reqres.in/api/users
Proxy:			<none>
Request params:	<none>
Query params:	<none>
Form params:	<none>
Path params:	<none>
Headers:		Accept=*/*
				Content-Type=application/json; charset=UTF-8
Cookies:		<none>
Multiparts:		<none>
Body:
{
    "name": "Clement",
    "job": "Manager"
}
HTTP/1.1 201 Created
Date: Tue, 08 Sep 2020 04:30:15 GMT
Content-Type: application/json; charset=utf-8
Content-Length: 84
Connection: keep-alive
Set-Cookie: __cfduid=d77a92a5f2798716ca08e213bf1f7a9c51599539414; expires=Thu, 08-Oct-20 04:30:14 GMT; path=/; domain=.reqres.in; HttpOnly; SameSite=Lax; Secure
X-Powered-By: Express
Access-Control-Allow-Origin: *
Etag: W/"54-rlrqZYLp6yTM4lQOyBpeuSJS5uQ"
Via: 1.1 vegur
CF-Cache-Status: DYNAMIC
cf-request-id: 050d939f430000c36d80a66200000001
Expect-CT: max-age=604800, report-uri="https://report-uri.cloudflare.com/cdn-cgi/beacon/expect-ct"
Server: cloudflare
CF-RAY: 5cf5eededef4c36d-SIN

{
    "name": "Clement",
    "job": "Manager",
    "id": "182",
    "createdAt": "2020-09-08T04:30:15.136Z"
}
Request method:	POST
Request URI:	https://reqres.in/api/users
Proxy:			<none>
Request params:	<none>
Query params:	<none>
Form params:	<none>
Path params:	<none>
Headers:		Accept=*/*
				Content-Type=application/json; charset=UTF-8
Cookies:		<none>
Multiparts:		<none>
Body:
{
    "name": "Wilfred",
    "job": "QA"
}
HTTP/1.1 201 Created
Date: Tue, 08 Sep 2020 04:30:17 GMT
Content-Type: application/json; charset=utf-8
Content-Length: 79
Connection: keep-alive
Set-Cookie: __cfduid=d449609f5eed438836767a0208e629e781599539417; expires=Thu, 08-Oct-20 04:30:17 GMT; path=/; domain=.reqres.in; HttpOnly; SameSite=Lax; Secure
X-Powered-By: Express
Access-Control-Allow-Origin: *
Etag: W/"4f-QuJeduxAswMbVfW2GqkyS5CTqpY"
Via: 1.1 vegur
CF-Cache-Status: DYNAMIC
cf-request-id: 050d93a9c70000c36d80b33200000001
Expect-CT: max-age=604800, report-uri="https://report-uri.cloudflare.com/cdn-cgi/beacon/expect-ct"
Server: cloudflare
CF-RAY: 5cf5eeefaa7ac36d-SIN

{
    "name": "Wilfred",
    "job": "QA",
    "id": "141",
    "createdAt": "2020-09-08T04:30:17.840Z"
}
Request method:	POST
Request URI:	https://reqres.in/api/users
Proxy:			<none>
Request params:	<none>
Query params:	<none>
Form params:	<none>
Path params:	<none>
Headers:		Accept=*/*
				Content-Type=application/json; charset=UTF-8
Cookies:		<none>
Multiparts:		<none>
Body:
{
    "name": "Clement",
    "job": "Manager"
}
HTTP/1.1 201 Created
Date: Tue, 08 Sep 2020 04:30:18 GMT
Content-Type: application/json; charset=utf-8
Content-Length: 84
Connection: keep-alive
Set-Cookie: __cfduid=dae0d519aea1a7e9a402c1cc0e3d1d3691599539418; expires=Thu, 08-Oct-20 04:30:18 GMT; path=/; domain=.reqres.in; HttpOnly; SameSite=Lax; Secure
X-Powered-By: Express
Access-Control-Allow-Origin: *
Etag: W/"54-rIDQcIkDN5IG1kkZvZh4rUTmOGo"
Via: 1.1 vegur
CF-Cache-Status: DYNAMIC
cf-request-id: 050d93ad460000c36d80b8c200000001
Expect-CT: max-age=604800, report-uri="https://report-uri.cloudflare.com/cdn-cgi/beacon/expect-ct"
Server: cloudflare
CF-RAY: 5cf5eef53e5cc36d-SIN

{
    "name": "Clement",
    "job": "Manager",
    "id": "945",
    "createdAt": "2020-09-08T04:30:18.542Z"
}
Request method:	POST
Request URI:	https://reqres.in/api/users
Proxy:			<none>
Request params:	<none>
Query params:	<none>
Form params:	<none>
Path params:	<none>
Headers:		Accept=*/*
				Content-Type=application/json; charset=UTF-8
Cookies:		<none>
Multiparts:		<none>
Body:
{
    "name": "Joseph",
    "job": "Lead"
}
HTTP/1.1 201 Created
Date: Tue, 08 Sep 2020 04:30:19 GMT
Content-Type: application/json; charset=utf-8
Content-Length: 80
Connection: keep-alive
Set-Cookie: __cfduid=d338e8f247e529bc5ecf055cf346ad0911599539419; expires=Thu, 08-Oct-20 04:30:19 GMT; path=/; domain=.reqres.in; HttpOnly; SameSite=Lax; Secure
X-Powered-By: Express
Access-Control-Allow-Origin: *
Etag: W/"50-HyrdDcRC2VEGY4qLWbkemtOGFok"
Via: 1.1 vegur
CF-Cache-Status: DYNAMIC
cf-request-id: 050d93b20c0000c36d80beb200000001
Expect-CT: max-age=604800, report-uri="https://report-uri.cloudflare.com/cdn-cgi/beacon/expect-ct"
Server: cloudflare
CF-RAY: 5cf5eefcee03c36d-SIN

{
    "name": "Joseph",
    "job": "Lead",
    "id": "738",
    "createdAt": "2020-09-08T04:30:19.752Z"
}
