Request method:	GET
Request URI:	https://reqres.in/api/users?page=2
Proxy:			<none>
Request params:	<none>
Query params:	page=2
Form params:	<none>
Path params:	<none>
Headers:		Accept=*/*
Cookies:		<none>
Multiparts:		<none>
Body:			<none>
HTTP/1.1 200 OK
Date: Tue, 08 Sep 2020 04:53:26 GMT
Content-Type: application/json; charset=utf-8
Transfer-Encoding: chunked
Connection: keep-alive
Set-Cookie: __cfduid=d60597b0aeba1f1fcc9ac38f404d769531599540806; expires=Thu, 08-Oct-20 04:53:26 GMT; path=/; domain=.reqres.in; HttpOnly; SameSite=Lax; Secure
X-Powered-By: Express
Access-Control-Allow-Origin: *
Etag: W/"4dd-IPv5LdOOb6s5S9E3i59wBCJ1k/0"
Via: 1.1 vegur
Cache-Control: max-age=14400
CF-Cache-Status: REVALIDATED
cf-request-id: 050da8da130000df77fa1e9200000001
Expect-CT: max-age=604800, report-uri="https://report-uri.cloudflare.com/cdn-cgi/beacon/expect-ct"
Vary: Accept-Encoding
Server: cloudflare
CF-RAY: 5cf610d68c3ddf77-BOM
Content-Encoding: gzip

{
    "page": 2,
    "per_page": 6,
    "total": 12,
    "total_pages": 2,
    "data": [
        {
            "id": 7,
            "email": "michael.lawson@reqres.in",
            "first_name": "Michael",
            "last_name": "Lawson",
            "avatar": "https://s3.amazonaws.com/uifaces/faces/twitter/follettkyle/128.jpg"
        },
        {
            "id": 8,
            "email": "lindsay.ferguson@reqres.in",
            "first_name": "Lindsay",
            "last_name": "Ferguson",
            "avatar": "https://s3.amazonaws.com/uifaces/faces/twitter/araa3185/128.jpg"
        },
        {
            "id": 9,
            "email": "tobias.funke@reqres.in",
            "first_name": "Tobias",
            "last_name": "Funke",
            "avatar": "https://s3.amazonaws.com/uifaces/faces/twitter/vivekprvr/128.jpg"
        },
        {
            "id": 10,
            "email": "byron.fields@reqres.in",
            "first_name": "Byron",
            "last_name": "Fields",
            "avatar": "https://s3.amazonaws.com/uifaces/faces/twitter/russoedu/128.jpg"
        },
        {
            "id": 11,
            "email": "george.edwards@reqres.in",
            "first_name": "George",
            "last_name": "Edwards",
            "avatar": "https://s3.amazonaws.com/uifaces/faces/twitter/mrmoiree/128.jpg"
        },
        {
            "id": 12,
            "email": "rachel.howell@reqres.in",
            "first_name": "Rachel",
            "last_name": "Howell",
            "avatar": "https://s3.amazonaws.com/uifaces/faces/twitter/hebertialmeida/128.jpg"
        }
    ],
    "ad": {
        "company": "StatusCode Weekly",
        "url": "http://statuscode.org/",
        "text": "A weekly newsletter focusing on software development, infrastructure, the server, performance, and the stack end of things."
    }
}
Request method:	GET
Request URI:	https://reqres.in/api/users/2
Proxy:			<none>
Request params:	<none>
Query params:	<none>
Form params:	<none>
Path params:	<none>
Headers:		Accept=*/*
Cookies:		<none>
Multiparts:		<none>
Body:			<none>
HTTP/1.1 200 OK
Date: Tue, 08 Sep 2020 04:53:28 GMT
Content-Type: application/json; charset=utf-8
Transfer-Encoding: chunked
Connection: keep-alive
Set-Cookie: __cfduid=d0444b69922ab07bb49097e2dcf9a22e61599540808; expires=Thu, 08-Oct-20 04:53:28 GMT; path=/; domain=.reqres.in; HttpOnly; SameSite=Lax; Secure
X-Powered-By: Express
Access-Control-Allow-Origin: *
Etag: W/"173-1Z8bn0V7UjH6FK7NCaza1ccWXQk"
Via: 1.1 vegur
Cache-Control: max-age=14400
CF-Cache-Status: HIT
Age: 1328
cf-request-id: 050da8e46c00001a7278a37200000001
Expect-CT: max-age=604800, report-uri="https://report-uri.cloudflare.com/cdn-cgi/beacon/expect-ct"
Vary: Accept-Encoding
Server: cloudflare
CF-RAY: 5cf610e71c661a72-SIN
Content-Encoding: gzip

{
    "data": {
        "id": 2,
        "email": "janet.weaver@reqres.in",
        "first_name": "Janet",
        "last_name": "Weaver",
        "avatar": "https://s3.amazonaws.com/uifaces/faces/twitter/josephstein/128.jpg"
    },
    "ad": {
        "company": "StatusCode Weekly",
        "url": "http://statuscode.org/",
        "text": "A weekly newsletter focusing on software development, infrastructure, the server, performance, and the stack end of things."
    }
}
Request method:	GET
Request URI:	https://reqres.in/api/users/23
Proxy:			<none>
Request params:	<none>
Query params:	<none>
Form params:	<none>
Path params:	<none>
Headers:		Accept=*/*
Cookies:		<none>
Multiparts:		<none>
Body:			<none>
HTTP/1.1 404 Not Found
Date: Tue, 08 Sep 2020 04:53:29 GMT
Content-Type: application/json; charset=utf-8
Content-Length: 2
Connection: keep-alive
Set-Cookie: __cfduid=deb9022d0c44092284b4b8fd3d2edc1c21599540809; expires=Thu, 08-Oct-20 04:53:29 GMT; path=/; domain=.reqres.in; HttpOnly; SameSite=Lax; Secure
X-Powered-By: Express
Access-Control-Allow-Origin: *
Etag: W/"2-vyGp6PvFo4RvsFtPoIWeCReyIC8"
Via: 1.1 vegur
Cache-Control: max-age=14400
CF-Cache-Status: EXPIRED
cf-request-id: 050da8e58500001a7278a51200000001
Expect-CT: max-age=604800, report-uri="https://report-uri.cloudflare.com/cdn-cgi/beacon/expect-ct"
Vary: Accept-Encoding
Server: cloudflare
CF-RAY: 5cf610e8d9041a72-SIN

{
    
}
Request method:	GET
Request URI:	https://reqres.in/api/unknown
Proxy:			<none>
Request params:	<none>
Query params:	<none>
Form params:	<none>
Path params:	<none>
Headers:		Accept=*/*
Cookies:		<none>
Multiparts:		<none>
Body:			<none>
HTTP/1.1 200 OK
Date: Tue, 08 Sep 2020 04:53:29 GMT
Content-Type: application/json; charset=utf-8
Transfer-Encoding: chunked
Connection: keep-alive
Set-Cookie: __cfduid=deb9022d0c44092284b4b8fd3d2edc1c21599540809; expires=Thu, 08-Oct-20 04:53:29 GMT; path=/; domain=.reqres.in; HttpOnly; SameSite=Lax; Secure
x-powered-by: Express
access-control-allow-origin: *
etag: W/"301-ijGNEim/mAI7LpbQIXyQc2bjt+k"
via: 1.1 vegur
cf-int-pingora-origin-digest: {"ext_ip":"162.158.166.109","ext_port":30566,"upstream_rtt":190}
Cache-Control: max-age=14400
CF-Cache-Status: HIT
Age: 1642
cf-request-id: 050da8e86c00001a7278a9d200000001
Expect-CT: max-age=604800, report-uri="https://report-uri.cloudflare.com/cdn-cgi/beacon/expect-ct"
Vary: Accept-Encoding
Server: cloudflare
CF-RAY: 5cf610ed7e2f1a72-SIN
Content-Encoding: gzip

{
    "page": 1,
    "per_page": 6,
    "total": 12,
    "total_pages": 2,
    "data": [
        {
            "id": 1,
            "name": "cerulean",
            "year": 2000,
            "color": "#98B2D1",
            "pantone_value": "15-4020"
        },
        {
            "id": 2,
            "name": "fuchsia rose",
            "year": 2001,
            "color": "#C74375",
            "pantone_value": "17-2031"
        },
        {
            "id": 3,
            "name": "true red",
            "year": 2002,
            "color": "#BF1932",
            "pantone_value": "19-1664"
        },
        {
            "id": 4,
            "name": "aqua sky",
            "year": 2003,
            "color": "#7BC4C4",
            "pantone_value": "14-4811"
        },
        {
            "id": 5,
            "name": "tigerlily",
            "year": 2004,
            "color": "#E2583E",
            "pantone_value": "17-1456"
        },
        {
            "id": 6,
            "name": "blue turquoise",
            "year": 2005,
            "color": "#53B0AE",
            "pantone_value": "15-5217"
        }
    ],
    "ad": {
        "company": "StatusCode Weekly",
        "url": "http://statuscode.org/",
        "text": "A weekly newsletter focusing on software development, infrastructure, the server, performance, and the stack end of things."
    }
}
Request method:	GET
Request URI:	https://reqres.in/api/unknown/2
Proxy:			<none>
Request params:	<none>
Query params:	<none>
Form params:	<none>
Path params:	<none>
Headers:		Accept=*/*
Cookies:		<none>
Multiparts:		<none>
Body:			<none>
HTTP/1.1 200 OK
Date: Tue, 08 Sep 2020 04:53:31 GMT
Content-Type: application/json; charset=utf-8
Transfer-Encoding: chunked
Connection: keep-alive
Set-Cookie: __cfduid=d2f818fefbf55a81cd5c7871dcdcbc6121599540811; expires=Thu, 08-Oct-20 04:53:31 GMT; path=/; domain=.reqres.in; HttpOnly; SameSite=Lax; Secure
X-Powered-By: Express
Access-Control-Allow-Origin: *
Etag: W/"128-2OIdTk88Wl5IU+miBPIdhOPMcBo"
Via: 1.1 vegur
Cache-Control: max-age=14400
CF-Cache-Status: HIT
Age: 1642
cf-request-id: 050da8f00b00001a7278b3e200000001
Expect-CT: max-age=604800, report-uri="https://report-uri.cloudflare.com/cdn-cgi/beacon/expect-ct"
Vary: Accept-Encoding
Server: cloudflare
CF-RAY: 5cf610f9aacf1a72-SIN
Content-Encoding: gzip

{
    "data": {
        "id": 2,
        "name": "fuchsia rose",
        "year": 2001,
        "color": "#C74375",
        "pantone_value": "17-2031"
    },
    "ad": {
        "company": "StatusCode Weekly",
        "url": "http://statuscode.org/",
        "text": "A weekly newsletter focusing on software development, infrastructure, the server, performance, and the stack end of things."
    }
}
Request method:	POST
Request URI:	https://reqres.in/api/users
Proxy:			<none>
Request params:	<none>
Query params:	<none>
Form params:	<none>
Path params:	<none>
Headers:		Accept=*/*
				Content-Type=application/json; charset=UTF-8
Cookies:		<none>
Multiparts:		<none>
Body:
{
    "name": "Wilfred",
    "job": "QA"
}
HTTP/1.1 201 Created
Date: Tue, 08 Sep 2020 04:53:32 GMT
Content-Type: application/json; charset=utf-8
Content-Length: 79
Connection: keep-alive
Set-Cookie: __cfduid=df63d59d4bea9de8de8b484823b9d5e1e1599540812; expires=Thu, 08-Oct-20 04:53:32 GMT; path=/; domain=.reqres.in; HttpOnly; SameSite=Lax; Secure
X-Powered-By: Express
Access-Control-Allow-Origin: *
Etag: W/"4f-EKhpYBtYf8hKzHZmMhlE08KNCu8"
Via: 1.1 vegur
CF-Cache-Status: DYNAMIC
cf-request-id: 050da8f2b100001a7278b6c200000001
Expect-CT: max-age=604800, report-uri="https://report-uri.cloudflare.com/cdn-cgi/beacon/expect-ct"
Server: cloudflare
CF-RAY: 5cf610fdeee41a72-SIN

{
    "name": "Wilfred",
    "job": "QA",
    "id": "825",
    "createdAt": "2020-09-08T04:53:32.762Z"
}
Request method:	POST
Request URI:	https://reqres.in/api/users
Proxy:			<none>
Request params:	<none>
Query params:	<none>
Form params:	<none>
Path params:	<none>
Headers:		Accept=*/*
				Content-Type=application/json; charset=UTF-8
Cookies:		<none>
Multiparts:		<none>
Body:
{
    "name": "Joseph",
    "job": "Lead"
}
HTTP/1.1 201 Created
Date: Tue, 08 Sep 2020 04:53:33 GMT
Content-Type: application/json; charset=utf-8
Content-Length: 80
Connection: keep-alive
Set-Cookie: __cfduid=dc1d85be83903c34666866be1ef13467e1599540813; expires=Thu, 08-Oct-20 04:53:33 GMT; path=/; domain=.reqres.in; HttpOnly; SameSite=Lax; Secure
X-Powered-By: Express
Access-Control-Allow-Origin: *
Etag: W/"50-ME1fXZQytDXcNCLEgrswS+m+wRw"
Via: 1.1 vegur
CF-Cache-Status: DYNAMIC
cf-request-id: 050da8f53000001a7278b9f200000001
Expect-CT: max-age=604800, report-uri="https://report-uri.cloudflare.com/cdn-cgi/beacon/expect-ct"
Server: cloudflare
CF-RAY: 5cf61101ea591a72-SIN

{
    "name": "Joseph",
    "job": "Lead",
    "id": "852",
    "createdAt": "2020-09-08T04:53:33.378Z"
}
Request method:	POST
Request URI:	https://reqres.in/api/users
Proxy:			<none>
Request params:	<none>
Query params:	<none>
Form params:	<none>
Path params:	<none>
Headers:		Accept=*/*
				Content-Type=application/json; charset=UTF-8
Cookies:		<none>
Multiparts:		<none>
Body:
{
    "name": "Clement",
    "job": "Manager"
}
HTTP/1.1 201 Created
Date: Tue, 08 Sep 2020 04:53:34 GMT
Content-Type: application/json; charset=utf-8
Content-Length: 84
Connection: keep-alive
Set-Cookie: __cfduid=da6182108c8cbb99c39301b2e14c6ea5c1599540814; expires=Thu, 08-Oct-20 04:53:34 GMT; path=/; domain=.reqres.in; HttpOnly; SameSite=Lax; Secure
X-Powered-By: Express
Access-Control-Allow-Origin: *
Etag: W/"54-ric2bd2Wtdt0lvrXk18MGDITJ+M"
Via: 1.1 vegur
CF-Cache-Status: DYNAMIC
cf-request-id: 050da8fa6e00001a7278828200000001
Expect-CT: max-age=604800, report-uri="https://report-uri.cloudflare.com/cdn-cgi/beacon/expect-ct"
Server: cloudflare
CF-RAY: 5cf6110a4a2a1a72-SIN

{
    "name": "Clement",
    "job": "Manager",
    "id": "780",
    "createdAt": "2020-09-08T04:53:34.751Z"
}
Request method:	POST
Request URI:	https://reqres.in/api/users
Proxy:			<none>
Request params:	<none>
Query params:	<none>
Form params:	<none>
Path params:	<none>
Headers:		Accept=*/*
				Content-Type=application/json; charset=UTF-8
Cookies:		<none>
Multiparts:		<none>
Body:
{
    "name": "Wilfred",
    "job": "QA"
}
HTTP/1.1 201 Created
Date: Tue, 08 Sep 2020 04:53:36 GMT
Content-Type: application/json; charset=utf-8
Content-Length: 79
Connection: keep-alive
Set-Cookie: __cfduid=d19ef7a675bf0619383264f94b51419b31599540815; expires=Thu, 08-Oct-20 04:53:35 GMT; path=/; domain=.reqres.in; HttpOnly; SameSite=Lax; Secure
X-Powered-By: Express
Access-Control-Allow-Origin: *
Etag: W/"4f-BMHhfG+laIMDHfNrV3oRVlQqOPs"
Via: 1.1 vegur
CF-Cache-Status: DYNAMIC
cf-request-id: 050da9005600001a72788bc200000001
Expect-CT: max-age=604800, report-uri="https://report-uri.cloudflare.com/cdn-cgi/beacon/expect-ct"
Server: cloudflare
CF-RAY: 5cf61113be2f1a72-SIN

{
    "name": "Wilfred",
    "job": "QA",
    "id": "717",
    "createdAt": "2020-09-08T04:53:36.062Z"
}
Request method:	POST
Request URI:	https://reqres.in/api/users
Proxy:			<none>
Request params:	<none>
Query params:	<none>
Form params:	<none>
Path params:	<none>
Headers:		Accept=*/*
				Content-Type=application/json; charset=UTF-8
Cookies:		<none>
Multiparts:		<none>
Body:
{
    "name": "Clement",
    "job": "Manager"
}
HTTP/1.1 201 Created
Date: Tue, 08 Sep 2020 04:53:36 GMT
Content-Type: application/json; charset=utf-8
Content-Length: 84
Connection: keep-alive
Set-Cookie: __cfduid=d43d1139e402ec73cf05570e84205406f1599540816; expires=Thu, 08-Oct-20 04:53:36 GMT; path=/; domain=.reqres.in; HttpOnly; SameSite=Lax; Secure
X-Powered-By: Express
Access-Control-Allow-Origin: *
Etag: W/"54-t0CkqkJ0NdvCR9Kh216i//ljkLA"
Via: 1.1 vegur
CF-Cache-Status: DYNAMIC
cf-request-id: 050da9025a00001a72788d7200000001
Expect-CT: max-age=604800, report-uri="https://report-uri.cloudflare.com/cdn-cgi/beacon/expect-ct"
Server: cloudflare
CF-RAY: 5cf61116fee91a72-SIN

{
    "name": "Clement",
    "job": "Manager",
    "id": "959",
    "createdAt": "2020-09-08T04:53:36.746Z"
}
Request method:	POST
Request URI:	https://reqres.in/api/users
Proxy:			<none>
Request params:	<none>
Query params:	<none>
Form params:	<none>
Path params:	<none>
Headers:		Accept=*/*
				Content-Type=application/json; charset=UTF-8
Cookies:		<none>
Multiparts:		<none>
Body:
{
    "name": "Joseph",
    "job": "Lead"
}
HTTP/1.1 201 Created
Date: Tue, 08 Sep 2020 04:53:37 GMT
Content-Type: application/json; charset=utf-8
Content-Length: 80
Connection: keep-alive
Set-Cookie: __cfduid=d3bf775c1d66534cdf6b98ae98ca7e5271599540817; expires=Thu, 08-Oct-20 04:53:37 GMT; path=/; domain=.reqres.in; HttpOnly; SameSite=Lax; Secure
X-Powered-By: Express
Access-Control-Allow-Origin: *
Etag: W/"50-L1kfnAHCzNLo39EwII9FiKfHQJs"
Via: 1.1 vegur
CF-Cache-Status: DYNAMIC
cf-request-id: 050da905a900001a7278910200000001
Expect-CT: max-age=604800, report-uri="https://report-uri.cloudflare.com/cdn-cgi/beacon/expect-ct"
Server: cloudflare
CF-RAY: 5cf6111c4cc41a72-SIN

{
    "name": "Joseph",
    "job": "Lead",
    "id": "202",
    "createdAt": "2020-09-08T04:53:37.591Z"
}
