Request method:	GET
Request URI:	https://reqres.in/api/users?page=2
Proxy:			<none>
Request params:	<none>
Query params:	page=2
Form params:	<none>
Path params:	<none>
Headers:		Accept=*/*
Cookies:		<none>
Multiparts:		<none>
Body:			<none>
HTTP/1.1 200 OK
Date: Tue, 08 Sep 2020 04:56:07 GMT
Content-Type: application/json; charset=utf-8
Transfer-Encoding: chunked
Connection: keep-alive
Set-Cookie: __cfduid=d6b2b7008d4d564283a6f056c944298d51599540967; expires=Thu, 08-Oct-20 04:56:07 GMT; path=/; domain=.reqres.in; HttpOnly; SameSite=Lax; Secure
X-Powered-By: Express
Access-Control-Allow-Origin: *
Etag: W/"4dd-IPv5LdOOb6s5S9E3i59wBCJ1k/0"
Via: 1.1 vegur
Cache-Control: max-age=14400
CF-Cache-Status: HIT
Age: 4527
cf-request-id: 050dab4fba000001bc96167200000001
Expect-CT: max-age=604800, report-uri="https://report-uri.cloudflare.com/cdn-cgi/beacon/expect-ct"
Vary: Accept-Encoding
Server: cloudflare
CF-RAY: 5cf614c5fff701bc-SIN
Content-Encoding: gzip

{
    "page": 2,
    "per_page": 6,
    "total": 12,
    "total_pages": 2,
    "data": [
        {
            "id": 7,
            "email": "michael.lawson@reqres.in",
            "first_name": "Michael",
            "last_name": "Lawson",
            "avatar": "https://s3.amazonaws.com/uifaces/faces/twitter/follettkyle/128.jpg"
        },
        {
            "id": 8,
            "email": "lindsay.ferguson@reqres.in",
            "first_name": "Lindsay",
            "last_name": "Ferguson",
            "avatar": "https://s3.amazonaws.com/uifaces/faces/twitter/araa3185/128.jpg"
        },
        {
            "id": 9,
            "email": "tobias.funke@reqres.in",
            "first_name": "Tobias",
            "last_name": "Funke",
            "avatar": "https://s3.amazonaws.com/uifaces/faces/twitter/vivekprvr/128.jpg"
        },
        {
            "id": 10,
            "email": "byron.fields@reqres.in",
            "first_name": "Byron",
            "last_name": "Fields",
            "avatar": "https://s3.amazonaws.com/uifaces/faces/twitter/russoedu/128.jpg"
        },
        {
            "id": 11,
            "email": "george.edwards@reqres.in",
            "first_name": "George",
            "last_name": "Edwards",
            "avatar": "https://s3.amazonaws.com/uifaces/faces/twitter/mrmoiree/128.jpg"
        },
        {
            "id": 12,
            "email": "rachel.howell@reqres.in",
            "first_name": "Rachel",
            "last_name": "Howell",
            "avatar": "https://s3.amazonaws.com/uifaces/faces/twitter/hebertialmeida/128.jpg"
        }
    ],
    "ad": {
        "company": "StatusCode Weekly",
        "url": "http://statuscode.org/",
        "text": "A weekly newsletter focusing on software development, infrastructure, the server, performance, and the stack end of things."
    }
}
Request method:	GET
Request URI:	https://reqres.in/api/users/2
Proxy:			<none>
Request params:	<none>
Query params:	<none>
Form params:	<none>
Path params:	<none>
Headers:		Accept=*/*
Cookies:		<none>
Multiparts:		<none>
Body:			<none>
HTTP/1.1 200 OK
Date: Tue, 08 Sep 2020 04:56:09 GMT
Content-Type: application/json; charset=utf-8
Transfer-Encoding: chunked
Connection: keep-alive
Set-Cookie: __cfduid=de9147a3dbaa9a31fd762f243463cefa91599540969; expires=Thu, 08-Oct-20 04:56:09 GMT; path=/; domain=.reqres.in; HttpOnly; SameSite=Lax; Secure
X-Powered-By: Express
Access-Control-Allow-Origin: *
Etag: W/"173-1Z8bn0V7UjH6FK7NCaza1ccWXQk"
Via: 1.1 vegur
Cache-Control: max-age=14400
CF-Cache-Status: HIT
Age: 1489
cf-request-id: 050dab564f000001bc961f2200000001
Expect-CT: max-age=604800, report-uri="https://report-uri.cloudflare.com/cdn-cgi/beacon/expect-ct"
Vary: Accept-Encoding
Server: cloudflare
CF-RAY: 5cf614d07b5b01bc-SIN
Content-Encoding: gzip

{
    "data": {
        "id": 2,
        "email": "janet.weaver@reqres.in",
        "first_name": "Janet",
        "last_name": "Weaver",
        "avatar": "https://s3.amazonaws.com/uifaces/faces/twitter/josephstein/128.jpg"
    },
    "ad": {
        "company": "StatusCode Weekly",
        "url": "http://statuscode.org/",
        "text": "A weekly newsletter focusing on software development, infrastructure, the server, performance, and the stack end of things."
    }
}
Request method:	GET
Request URI:	https://reqres.in/api/users/23
Proxy:			<none>
Request params:	<none>
Query params:	<none>
Form params:	<none>
Path params:	<none>
Headers:		Accept=*/*
Cookies:		<none>
Multiparts:		<none>
Body:			<none>
HTTP/1.1 404 Not Found
Date: Tue, 08 Sep 2020 04:56:09 GMT
Content-Type: application/json; charset=utf-8
Content-Length: 2
Connection: keep-alive
Set-Cookie: __cfduid=de9147a3dbaa9a31fd762f243463cefa91599540969; expires=Thu, 08-Oct-20 04:56:09 GMT; path=/; domain=.reqres.in; HttpOnly; SameSite=Lax; Secure
X-Powered-By: Express
Access-Control-Allow-Origin: *
Etag: W/"2-vyGp6PvFo4RvsFtPoIWeCReyIC8"
Via: 1.1 vegur
Cache-Control: max-age=14400
CF-Cache-Status: HIT
Age: 160
cf-request-id: 050dab5866000001bc96211200000001
Expect-CT: max-age=604800, report-uri="https://report-uri.cloudflare.com/cdn-cgi/beacon/expect-ct"
Vary: Accept-Encoding
Server: cloudflare
CF-RAY: 5cf614d3dc6301bc-SIN

{
    
}
Request method:	GET
Request URI:	https://reqres.in/api/unknown
Proxy:			<none>
Request params:	<none>
Query params:	<none>
Form params:	<none>
Path params:	<none>
Headers:		Accept=*/*
Cookies:		<none>
Multiparts:		<none>
Body:			<none>
HTTP/1.1 200 OK
Date: Tue, 08 Sep 2020 04:56:09 GMT
Content-Type: application/json; charset=utf-8
Transfer-Encoding: chunked
Connection: keep-alive
Set-Cookie: __cfduid=de9147a3dbaa9a31fd762f243463cefa91599540969; expires=Thu, 08-Oct-20 04:56:09 GMT; path=/; domain=.reqres.in; HttpOnly; SameSite=Lax; Secure
x-powered-by: Express
access-control-allow-origin: *
etag: W/"301-ijGNEim/mAI7LpbQIXyQc2bjt+k"
via: 1.1 vegur
cf-int-pingora-origin-digest: {"ext_ip":"162.158.166.109","ext_port":30566,"upstream_rtt":190}
Cache-Control: max-age=14400
CF-Cache-Status: HIT
Age: 1802
cf-request-id: 050dab599b000001bc96225200000001
Expect-CT: max-age=604800, report-uri="https://report-uri.cloudflare.com/cdn-cgi/beacon/expect-ct"
Vary: Accept-Encoding
Server: cloudflare
CF-RAY: 5cf614d5c9bd01bc-SIN
Content-Encoding: gzip

{
    "page": 1,
    "per_page": 6,
    "total": 12,
    "total_pages": 2,
    "data": [
        {
            "id": 1,
            "name": "cerulean",
            "year": 2000,
            "color": "#98B2D1",
            "pantone_value": "15-4020"
        },
        {
            "id": 2,
            "name": "fuchsia rose",
            "year": 2001,
            "color": "#C74375",
            "pantone_value": "17-2031"
        },
        {
            "id": 3,
            "name": "true red",
            "year": 2002,
            "color": "#BF1932",
            "pantone_value": "19-1664"
        },
        {
            "id": 4,
            "name": "aqua sky",
            "year": 2003,
            "color": "#7BC4C4",
            "pantone_value": "14-4811"
        },
        {
            "id": 5,
            "name": "tigerlily",
            "year": 2004,
            "color": "#E2583E",
            "pantone_value": "17-1456"
        },
        {
            "id": 6,
            "name": "blue turquoise",
            "year": 2005,
            "color": "#53B0AE",
            "pantone_value": "15-5217"
        }
    ],
    "ad": {
        "company": "StatusCode Weekly",
        "url": "http://statuscode.org/",
        "text": "A weekly newsletter focusing on software development, infrastructure, the server, performance, and the stack end of things."
    }
}
Request method:	GET
Request URI:	https://reqres.in/api/unknown/2
Proxy:			<none>
Request params:	<none>
Query params:	<none>
Form params:	<none>
Path params:	<none>
Headers:		Accept=*/*
Cookies:		<none>
Multiparts:		<none>
Body:			<none>
HTTP/1.1 200 OK
Date: Tue, 08 Sep 2020 04:56:10 GMT
Content-Type: application/json; charset=utf-8
Transfer-Encoding: chunked
Connection: keep-alive
Set-Cookie: __cfduid=d7d609cc716e6ffb0f57c73cb658856a61599540970; expires=Thu, 08-Oct-20 04:56:10 GMT; path=/; domain=.reqres.in; HttpOnly; SameSite=Lax; Secure
X-Powered-By: Express
Access-Control-Allow-Origin: *
Etag: W/"128-2OIdTk88Wl5IU+miBPIdhOPMcBo"
Via: 1.1 vegur
Cache-Control: max-age=14400
CF-Cache-Status: HIT
Age: 1801
cf-request-id: 050dab5d36000001bc96289200000001
Expect-CT: max-age=604800, report-uri="https://report-uri.cloudflare.com/cdn-cgi/beacon/expect-ct"
Vary: Accept-Encoding
Server: cloudflare
CF-RAY: 5cf614db885f01bc-SIN
Content-Encoding: gzip

{
    "data": {
        "id": 2,
        "name": "fuchsia rose",
        "year": 2001,
        "color": "#C74375",
        "pantone_value": "17-2031"
    },
    "ad": {
        "company": "StatusCode Weekly",
        "url": "http://statuscode.org/",
        "text": "A weekly newsletter focusing on software development, infrastructure, the server, performance, and the stack end of things."
    }
}
Request method:	POST
Request URI:	https://reqres.in/api/users
Proxy:			<none>
Request params:	<none>
Query params:	<none>
Form params:	<none>
Path params:	<none>
Headers:		Accept=*/*
				Content-Type=application/json; charset=UTF-8
Cookies:		<none>
Multiparts:		<none>
Body:
{
    "name": "Wilfred",
    "job": "QA"
}
HTTP/1.1 201 Created
Date: Tue, 08 Sep 2020 04:56:11 GMT
Content-Type: application/json; charset=utf-8
Content-Length: 79
Connection: keep-alive
Set-Cookie: __cfduid=d08d99cfc86a7872201b56c4e5dd7faad1599540971; expires=Thu, 08-Oct-20 04:56:11 GMT; path=/; domain=.reqres.in; HttpOnly; SameSite=Lax; Secure
X-Powered-By: Express
Access-Control-Allow-Origin: *
Etag: W/"4f-gB0Yn8u4IOd4yXfl7o7NijUoL78"
Via: 1.1 vegur
CF-Cache-Status: DYNAMIC
cf-request-id: 050dab5f0d000001bc962b9200000001
Expect-CT: max-age=604800, report-uri="https://report-uri.cloudflare.com/cdn-cgi/beacon/expect-ct"
Server: cloudflare
CF-RAY: 5cf614de787501bc-SIN

{
    "name": "Wilfred",
    "job": "QA",
    "id": "534",
    "createdAt": "2020-09-08T04:56:11.570Z"
}
Request method:	POST
Request URI:	https://reqres.in/api/users
Proxy:			<none>
Request params:	<none>
Query params:	<none>
Form params:	<none>
Path params:	<none>
Headers:		Accept=*/*
				Content-Type=application/json; charset=UTF-8
Cookies:		<none>
Multiparts:		<none>
Body:
{
    "name": "Joseph",
    "job": "Lead"
}
HTTP/1.1 201 Created
Date: Tue, 08 Sep 2020 04:56:12 GMT
Content-Type: application/json; charset=utf-8
Content-Length: 80
Connection: keep-alive
Set-Cookie: __cfduid=dbe0f939b5b39178d37d9f5150d97fa9d1599540972; expires=Thu, 08-Oct-20 04:56:12 GMT; path=/; domain=.reqres.in; HttpOnly; SameSite=Lax; Secure
X-Powered-By: Express
Access-Control-Allow-Origin: *
Etag: W/"50-Y2UcfiEyD6TuFH19S5uowiVVFOM"
Via: 1.1 vegur
CF-Cache-Status: DYNAMIC
cf-request-id: 050dab61fd000001bc962f6200000001
Expect-CT: max-age=604800, report-uri="https://report-uri.cloudflare.com/cdn-cgi/beacon/expect-ct"
Server: cloudflare
CF-RAY: 5cf614e32d6901bc-SIN

{
    "name": "Joseph",
    "job": "Lead",
    "id": "342",
    "createdAt": "2020-09-08T04:56:12.316Z"
}
Request method:	POST
Request URI:	https://reqres.in/api/users
Proxy:			<none>
Request params:	<none>
Query params:	<none>
Form params:	<none>
Path params:	<none>
Headers:		Accept=*/*
				Content-Type=application/json; charset=UTF-8
Cookies:		<none>
Multiparts:		<none>
Body:
{
    "name": "Clement",
    "job": "Manager"
}
HTTP/1.1 201 Created
Date: Tue, 08 Sep 2020 04:56:13 GMT
Content-Type: application/json; charset=utf-8
Content-Length: 84
Connection: keep-alive
Set-Cookie: __cfduid=dbe0f939b5b39178d37d9f5150d97fa9d1599540972; expires=Thu, 08-Oct-20 04:56:12 GMT; path=/; domain=.reqres.in; HttpOnly; SameSite=Lax; Secure
X-Powered-By: Express
Access-Control-Allow-Origin: *
Etag: W/"54-rWKLofRXzpuIaqs42U9ZL3y/P/4"
Via: 1.1 vegur
CF-Cache-Status: DYNAMIC
cf-request-id: 050dab650e000001bc96329200000001
Expect-CT: max-age=604800, report-uri="https://report-uri.cloudflare.com/cdn-cgi/beacon/expect-ct"
Server: cloudflare
CF-RAY: 5cf614e81a0301bc-SIN

{
    "name": "Clement",
    "job": "Manager",
    "id": "280",
    "createdAt": "2020-09-08T04:56:13.100Z"
}
Request method:	POST
Request URI:	https://reqres.in/api/users
Proxy:			<none>
Request params:	<none>
Query params:	<none>
Form params:	<none>
Path params:	<none>
Headers:		Accept=*/*
				Content-Type=application/json; charset=UTF-8
Cookies:		<none>
Multiparts:		<none>
Body:
{
    "name": "Wilfred",
    "job": "QA"
}
HTTP/1.1 201 Created
Date: Tue, 08 Sep 2020 04:56:14 GMT
Content-Type: application/json; charset=utf-8
Content-Length: 79
Connection: keep-alive
Set-Cookie: __cfduid=de37f931103cdfbc591dfa318277d88c41599540974; expires=Thu, 08-Oct-20 04:56:14 GMT; path=/; domain=.reqres.in; HttpOnly; SameSite=Lax; Secure
X-Powered-By: Express
Access-Control-Allow-Origin: *
Etag: W/"4f-k/HxShnQOmlq0igEFDrCVBDCvT8"
Via: 1.1 vegur
CF-Cache-Status: DYNAMIC
cf-request-id: 050dab6b36000001bc963bf200000001
Expect-CT: max-age=604800, report-uri="https://report-uri.cloudflare.com/cdn-cgi/beacon/expect-ct"
Server: cloudflare
CF-RAY: 5cf614f1fc4601bc-SIN

{
    "name": "Wilfred",
    "job": "QA",
    "id": "669",
    "createdAt": "2020-09-08T04:56:14.498Z"
}
Request method:	POST
Request URI:	https://reqres.in/api/users
Proxy:			<none>
Request params:	<none>
Query params:	<none>
Form params:	<none>
Path params:	<none>
Headers:		Accept=*/*
				Content-Type=application/json; charset=UTF-8
Cookies:		<none>
Multiparts:		<none>
Body:
{
    "name": "Clement",
    "job": "Manager"
}
HTTP/1.1 201 Created
Date: Tue, 08 Sep 2020 04:56:15 GMT
Content-Type: application/json; charset=utf-8
Content-Length: 84
Connection: keep-alive
Set-Cookie: __cfduid=d4c2760bed229daed52af6ae60cacfbbc1599540975; expires=Thu, 08-Oct-20 04:56:15 GMT; path=/; domain=.reqres.in; HttpOnly; SameSite=Lax; Secure
X-Powered-By: Express
Access-Control-Allow-Origin: *
Etag: W/"54-AB232DlXqTz49a20lQEG0f4xbNs"
Via: 1.1 vegur
CF-Cache-Status: DYNAMIC
cf-request-id: 050dab6f2d000001bc9600c200000001
Expect-CT: max-age=604800, report-uri="https://report-uri.cloudflare.com/cdn-cgi/beacon/expect-ct"
Server: cloudflare
CF-RAY: 5cf614f84d7001bc-SIN

{
    "name": "Clement",
    "job": "Manager",
    "id": "534",
    "createdAt": "2020-09-08T04:56:15.666Z"
}
Request method:	POST
Request URI:	https://reqres.in/api/users
Proxy:			<none>
Request params:	<none>
Query params:	<none>
Form params:	<none>
Path params:	<none>
Headers:		Accept=*/*
				Content-Type=application/json; charset=UTF-8
Cookies:		<none>
Multiparts:		<none>
Body:
{
    "name": "Joseph",
    "job": "Lead"
}
HTTP/1.1 201 Created
Date: Tue, 08 Sep 2020 04:56:16 GMT
Content-Type: application/json; charset=utf-8
Content-Length: 80
Connection: keep-alive
Set-Cookie: __cfduid=dd0c4957920b175ebe3300876486902ed1599540976; expires=Thu, 08-Oct-20 04:56:16 GMT; path=/; domain=.reqres.in; HttpOnly; SameSite=Lax; Secure
X-Powered-By: Express
Access-Control-Allow-Origin: *
Etag: W/"50-eDzPavc9lBzrlkarLcIIKqZUwMk"
Via: 1.1 vegur
CF-Cache-Status: DYNAMIC
cf-request-id: 050dab7213000001bc96039200000001
Expect-CT: max-age=604800, report-uri="https://report-uri.cloudflare.com/cdn-cgi/beacon/expect-ct"
Server: cloudflare
CF-RAY: 5cf614fce9e201bc-SIN

{
    "name": "Joseph",
    "job": "Lead",
    "id": "124",
    "createdAt": "2020-09-08T04:56:16.256Z"
}
